%YAML 1.1
%TAG !u! tag:unity3d.com,2011:
--- !u!29 &1
OcclusionCullingSettings:
  m_ObjectHideFlags: 0
  serializedVersion: 2
  m_OcclusionBakeSettings:
    smallestOccluder: 5
    smallestHole: 0.25
    backfaceThreshold: 100
  m_SceneGUID: 00000000000000000000000000000000
  m_OcclusionCullingData: {fileID: 0}
--- !u!104 &2
RenderSettings:
  m_ObjectHideFlags: 0
  serializedVersion: 9
  m_Fog: 1
  m_FogColor: {r: 0, g: 0, b: 0, a: 1}
  m_FogMode: 3
  m_FogDensity: 0
  m_LinearFogStart: -2.1
  m_LinearFogEnd: 283.73
  m_AmbientSkyColor: {r: 0.66176474, g: 0.66176474, b: 0.66176474, a: 1}
  m_AmbientEquatorColor: {r: 0.114, g: 0.125, b: 0.133, a: 1}
  m_AmbientGroundColor: {r: 0.047, g: 0.043, b: 0.035, a: 1}
  m_AmbientIntensity: 1.73
  m_AmbientMode: 3
  m_SubtractiveShadowColor: {r: 0.42, g: 0.478, b: 0.627, a: 1}
  m_SkyboxMaterial: {fileID: 2100000, guid: f52414040e9c703489858ea44dcbc188, type: 2}
  m_HaloStrength: 0.5
  m_FlareStrength: 1
  m_FlareFadeSpeed: 3
  m_HaloTexture: {fileID: 0}
  m_SpotCookie: {fileID: 10001, guid: 0000000000000000e000000000000000, type: 0}
  m_DefaultReflectionMode: 0
  m_DefaultReflectionResolution: 128
  m_ReflectionBounces: 1
  m_ReflectionIntensity: 1
  m_CustomReflection: {fileID: 0}
  m_Sun: {fileID: 0}
  m_IndirectSpecularColor: {r: 0, g: 0, b: 0, a: 1}
  m_UseRadianceAmbientProbe: 0
--- !u!157 &3
LightmapSettings:
  m_ObjectHideFlags: 0
  serializedVersion: 12
  m_GIWorkflowMode: 0
  m_GISettings:
    serializedVersion: 2
    m_BounceScale: 1
    m_IndirectOutputScale: 1
    m_AlbedoBoost: 1
    m_EnvironmentLightingMode: 0
    m_EnableBakedLightmaps: 1
    m_EnableRealtimeLightmaps: 1
  m_LightmapEditorSettings:
    serializedVersion: 12
    m_Resolution: 2
    m_BakeResolution: 40
    m_AtlasSize: 1024
    m_AO: 0
    m_AOMaxDistance: 1
    m_CompAOExponent: 1
    m_CompAOExponentDirect: 0
    m_ExtractAmbientOcclusion: 0
    m_Padding: 2
    m_LightmapParameters: {fileID: 0}
    m_LightmapsBakeMode: 1
    m_TextureCompression: 1
    m_FinalGather: 0
    m_FinalGatherFiltering: 1
    m_FinalGatherRayCount: 256
    m_ReflectionCompression: 2
    m_MixedBakeMode: 1
    m_BakeBackend: 0
    m_PVRSampling: 1
    m_PVRDirectSampleCount: 32
    m_PVRSampleCount: 500
    m_PVRBounces: 2
    m_PVREnvironmentSampleCount: 500
    m_PVREnvironmentReferencePointCount: 2048
    m_PVRFilteringMode: 2
    m_PVRDenoiserTypeDirect: 0
    m_PVRDenoiserTypeIndirect: 0
    m_PVRDenoiserTypeAO: 0
    m_PVRFilterTypeDirect: 0
    m_PVRFilterTypeIndirect: 0
    m_PVRFilterTypeAO: 0
    m_PVREnvironmentMIS: 0
    m_PVRCulling: 1
    m_PVRFilteringGaussRadiusDirect: 1
    m_PVRFilteringGaussRadiusIndirect: 5
    m_PVRFilteringGaussRadiusAO: 2
    m_PVRFilteringAtrousPositionSigmaDirect: 0.5
    m_PVRFilteringAtrousPositionSigmaIndirect: 2
    m_PVRFilteringAtrousPositionSigmaAO: 1
    m_ExportTrainingData: 0
    m_TrainingDataDestination: TrainingData
    m_LightProbeSampleCountMultiplier: 4
  m_LightingDataAsset: {fileID: 0}
  m_LightingSettings: {fileID: 4890085278179872738, guid: 2daf215f9f7ead94e8338de4fd7ca8a0, type: 2}
--- !u!196 &4
NavMeshSettings:
  serializedVersion: 2
  m_ObjectHideFlags: 0
  m_BuildSettings:
    serializedVersion: 2
    agentTypeID: 0
    agentRadius: 0.5
    agentHeight: 2
    agentSlope: 45
    agentClimb: 0.4
    ledgeDropHeight: 0
    maxJumpAcrossDistance: 0
    minRegionArea: 2
    manualCellSize: 0
    cellSize: 0.16666667
    manualTileSize: 0
    tileSize: 256
    accuratePlacement: 0
    maxJobWorkers: 0
    preserveTilesOutsideBounds: 0
    debug:
      m_Flags: 0
  m_NavMeshData: {fileID: 0}
--- !u!1 &1143114596 stripped
GameObject:
  m_CorrespondingSourceObject: {fileID: 1273327999505532, guid: e4a44daee2cdaf941b4fcca5737bde8c, type: 3}
  m_PrefabInstance: {fileID: 1293255259}
  m_PrefabAsset: {fileID: 0}
--- !u!114 &1279076790 stripped
MonoBehaviour:
  m_CorrespondingSourceObject: {fileID: 114173850769456230, guid: e4a44daee2cdaf941b4fcca5737bde8c, type: 3}
  m_PrefabInstance: {fileID: 1293255259}
  m_PrefabAsset: {fileID: 0}
  m_GameObject: {fileID: 0}
  m_Enabled: 1
  m_EditorHideFlags: 0
  m_Script: {fileID: 11500000, guid: 81bc16ca95894c34b836ea33671ae46d, type: 3}
  m_Name: 
  m_EditorClassIdentifier: 
--- !u!1001 &1293255259
PrefabInstance:
  m_ObjectHideFlags: 0
  serializedVersion: 2
  m_Modification:
    m_TransformParent: {fileID: 0}
    m_Modifications:
    - target: {fileID: 4029688786263620, guid: e4a44daee2cdaf941b4fcca5737bde8c, type: 3}
      propertyPath: m_RootOrder
      value: 0
      objectReference: {fileID: 0}
    - target: {fileID: 4029688786263620, guid: e4a44daee2cdaf941b4fcca5737bde8c, type: 3}
      propertyPath: m_LocalPosition.x
      value: 0
      objectReference: {fileID: 0}
    - target: {fileID: 4029688786263620, guid: e4a44daee2cdaf941b4fcca5737bde8c, type: 3}
      propertyPath: m_LocalPosition.y
      value: 0
      objectReference: {fileID: 0}
    - target: {fileID: 4029688786263620, guid: e4a44daee2cdaf941b4fcca5737bde8c, type: 3}
      propertyPath: m_LocalPosition.z
      value: 0
      objectReference: {fileID: 0}
    - target: {fileID: 4029688786263620, guid: e4a44daee2cdaf941b4fcca5737bde8c, type: 3}
      propertyPath: m_LocalRotation.w
      value: 1
      objectReference: {fileID: 0}
    - target: {fileID: 4029688786263620, guid: e4a44daee2cdaf941b4fcca5737bde8c, type: 3}
      propertyPath: m_LocalRotation.x
      value: 0
      objectReference: {fileID: 0}
    - target: {fileID: 4029688786263620, guid: e4a44daee2cdaf941b4fcca5737bde8c, type: 3}
      propertyPath: m_LocalRotation.y
      value: 0
      objectReference: {fileID: 0}
    - target: {fileID: 4029688786263620, guid: e4a44daee2cdaf941b4fcca5737bde8c, type: 3}
      propertyPath: m_LocalRotation.z
      value: 0
      objectReference: {fileID: 0}
    - target: {fileID: 23141326070746436, guid: e4a44daee2cdaf941b4fcca5737bde8c, type: 3}
      propertyPath: m_Materials.Array.data[0]
      value: 
      objectReference: {fileID: 21694689038030200, guid: 2032339f567bde146b32a51cb1425adf, type: 2}
    - target: {fileID: 23153921645696544, guid: e4a44daee2cdaf941b4fcca5737bde8c, type: 3}
      propertyPath: m_Materials.Array.data[0]
      value: 
      objectReference: {fileID: 21694689038030200, guid: 2032339f567bde146b32a51cb1425adf, type: 2}
    - target: {fileID: 23194114492311988, guid: e4a44daee2cdaf941b4fcca5737bde8c, type: 3}
      propertyPath: m_Materials.Array.data[0]
      value: 
      objectReference: {fileID: 21694689038030200, guid: 2032339f567bde146b32a51cb1425adf, type: 2}
    - target: {fileID: 23221913248616874, guid: e4a44daee2cdaf941b4fcca5737bde8c, type: 3}
      propertyPath: m_Materials.Array.data[0]
      value: 
      objectReference: {fileID: 21694689038030200, guid: 2032339f567bde146b32a51cb1425adf, type: 2}
    - target: {fileID: 23226318923119634, guid: e4a44daee2cdaf941b4fcca5737bde8c, type: 3}
      propertyPath: m_Materials.Array.data[0]
      value: 
      objectReference: {fileID: 21694689038030200, guid: 2032339f567bde146b32a51cb1425adf, type: 2}
    - target: {fileID: 23251365880380670, guid: e4a44daee2cdaf941b4fcca5737bde8c, type: 3}
      propertyPath: m_Materials.Array.data[0]
      value: 
      objectReference: {fileID: 21694689038030200, guid: 2032339f567bde146b32a51cb1425adf, type: 2}
    - target: {fileID: 23288041031504504, guid: e4a44daee2cdaf941b4fcca5737bde8c, type: 3}
      propertyPath: m_Materials.Array.data[0]
      value: 
      objectReference: {fileID: 21694689038030200, guid: 2032339f567bde146b32a51cb1425adf, type: 2}
    - target: {fileID: 23650165463129586, guid: e4a44daee2cdaf941b4fcca5737bde8c, type: 3}
      propertyPath: m_Materials.Array.data[0]
      value: 
      objectReference: {fileID: 21694689038030200, guid: 2032339f567bde146b32a51cb1425adf, type: 2}
    - target: {fileID: 23663252149031124, guid: e4a44daee2cdaf941b4fcca5737bde8c, type: 3}
      propertyPath: m_Materials.Array.data[0]
      value: 
      objectReference: {fileID: 21694689038030200, guid: 2032339f567bde146b32a51cb1425adf, type: 2}
    - target: {fileID: 23821920598409118, guid: e4a44daee2cdaf941b4fcca5737bde8c, type: 3}
      propertyPath: m_Materials.Array.data[0]
      value: 
      objectReference: {fileID: 21694689038030200, guid: 2032339f567bde146b32a51cb1425adf, type: 2}
    - target: {fileID: 23874020844701474, guid: e4a44daee2cdaf941b4fcca5737bde8c, type: 3}
      propertyPath: m_Materials.Array.data[0]
      value: 
      objectReference: {fileID: 21694689038030200, guid: 2032339f567bde146b32a51cb1425adf, type: 2}
    - target: {fileID: 23928079140778910, guid: e4a44daee2cdaf941b4fcca5737bde8c, type: 3}
      propertyPath: m_Materials.Array.data[0]
      value: 
      objectReference: {fileID: 21694689038030200, guid: 2032339f567bde146b32a51cb1425adf, type: 2}
    - target: {fileID: 33101205756936358, guid: e4a44daee2cdaf941b4fcca5737bde8c, type: 3}
      propertyPath: m_Mesh
      value: 
      objectReference: {fileID: 0}
    - target: {fileID: 33124219043293546, guid: e4a44daee2cdaf941b4fcca5737bde8c, type: 3}
      propertyPath: m_Mesh
      value: 
      objectReference: {fileID: 0}
    - target: {fileID: 33162914537086952, guid: e4a44daee2cdaf941b4fcca5737bde8c, type: 3}
      propertyPath: m_Mesh
      value: 
      objectReference: {fileID: 0}
    - target: {fileID: 33195007728671092, guid: e4a44daee2cdaf941b4fcca5737bde8c, type: 3}
      propertyPath: m_Mesh
      value: 
      objectReference: {fileID: 0}
    - target: {fileID: 33225804080652804, guid: e4a44daee2cdaf941b4fcca5737bde8c, type: 3}
      propertyPath: m_Mesh
      value: 
      objectReference: {fileID: 0}
    - target: {fileID: 33263073237279512, guid: e4a44daee2cdaf941b4fcca5737bde8c, type: 3}
      propertyPath: m_Mesh
      value: 
      objectReference: {fileID: 0}
    - target: {fileID: 33287065252519562, guid: e4a44daee2cdaf941b4fcca5737bde8c, type: 3}
      propertyPath: m_Mesh
      value: 
      objectReference: {fileID: 0}
    - target: {fileID: 33377298504372048, guid: e4a44daee2cdaf941b4fcca5737bde8c, type: 3}
      propertyPath: m_Mesh
      value: 
      objectReference: {fileID: 0}
    - target: {fileID: 33398381424633932, guid: e4a44daee2cdaf941b4fcca5737bde8c, type: 3}
      propertyPath: m_Mesh
      value: 
      objectReference: {fileID: 0}
    - target: {fileID: 33420586776708744, guid: e4a44daee2cdaf941b4fcca5737bde8c, type: 3}
      propertyPath: m_Mesh
      value: 
      objectReference: {fileID: 0}
    - target: {fileID: 33578245789279224, guid: e4a44daee2cdaf941b4fcca5737bde8c, type: 3}
      propertyPath: m_Mesh
      value: 
      objectReference: {fileID: 0}
    - target: {fileID: 33725914663329768, guid: e4a44daee2cdaf941b4fcca5737bde8c, type: 3}
      propertyPath: m_Mesh
      value: 
      objectReference: {fileID: 0}
    - target: {fileID: 33822342687147748, guid: e4a44daee2cdaf941b4fcca5737bde8c, type: 3}
      propertyPath: m_Mesh
      value: 
      objectReference: {fileID: 0}
    - target: {fileID: 33872464842746156, guid: e4a44daee2cdaf941b4fcca5737bde8c, type: 3}
      propertyPath: m_Mesh
      value: 
      objectReference: {fileID: 0}
    - target: {fileID: 33887297344922640, guid: e4a44daee2cdaf941b4fcca5737bde8c, type: 3}
      propertyPath: m_Mesh
      value: 
      objectReference: {fileID: 0}
    - target: {fileID: 33905148132542866, guid: e4a44daee2cdaf941b4fcca5737bde8c, type: 3}
      propertyPath: m_Mesh
      value: 
      objectReference: {fileID: 0}
    - target: {fileID: 33915051872231230, guid: e4a44daee2cdaf941b4fcca5737bde8c, type: 3}
      propertyPath: m_Mesh
      value: 
      objectReference: {fileID: 0}
    - target: {fileID: 33923361159603102, guid: e4a44daee2cdaf941b4fcca5737bde8c, type: 3}
      propertyPath: m_Mesh
      value: 
      objectReference: {fileID: 0}
    - target: {fileID: 33941052365417986, guid: e4a44daee2cdaf941b4fcca5737bde8c, type: 3}
      propertyPath: m_Mesh
      value: 
      objectReference: {fileID: 0}
    - target: {fileID: 33989308087712364, guid: e4a44daee2cdaf941b4fcca5737bde8c, type: 3}
      propertyPath: m_Mesh
      value: 
      objectReference: {fileID: 0}
    - target: {fileID: 95116323120437564, guid: e4a44daee2cdaf941b4fcca5737bde8c, type: 3}
      propertyPath: m_Controller
      value: 
      objectReference: {fileID: 9100000, guid: 5fd305d85c618db428d42570efc3dd94, type: 2}
    - target: {fileID: 95441500674023296, guid: e4a44daee2cdaf941b4fcca5737bde8c, type: 3}
      propertyPath: m_Controller
      value: 
      objectReference: {fileID: 9100000, guid: 5fd305d85c618db428d42570efc3dd94, type: 2}
    - target: {fileID: 114001237602817952, guid: e4a44daee2cdaf941b4fcca5737bde8c, type: 3}
      propertyPath: m_fontAsset
      value: 
      objectReference: {fileID: 11400000, guid: 2032339f567bde146b32a51cb1425adf, type: 2}
    - target: {fileID: 114001237602817952, guid: e4a44daee2cdaf941b4fcca5737bde8c, type: 3}
      propertyPath: m_hasFontAssetChanged
      value: 1
      objectReference: {fileID: 0}
    - target: {fileID: 114042263376512214, guid: e4a44daee2cdaf941b4fcca5737bde8c, type: 3}
      propertyPath: m_isInputParsingRequired
      value: 1
      objectReference: {fileID: 0}
    - target: {fileID: 114078180715008900, guid: e4a44daee2cdaf941b4fcca5737bde8c, type: 3}
      propertyPath: m_text
      value: v1.2
      objectReference: {fileID: 0}
    - target: {fileID: 114078180715008900, guid: e4a44daee2cdaf941b4fcca5737bde8c, type: 3}
      propertyPath: m_havePropertiesChanged
      value: 1
      objectReference: {fileID: 0}
    - target: {fileID: 114078180715008900, guid: e4a44daee2cdaf941b4fcca5737bde8c, type: 3}
      propertyPath: m_isInputParsingRequired
      value: 1
      objectReference: {fileID: 0}
    - target: {fileID: 114084098158734594, guid: e4a44daee2cdaf941b4fcca5737bde8c, type: 3}
      propertyPath: m_fontAsset
      value: 
      objectReference: {fileID: 11400000, guid: 2032339f567bde146b32a51cb1425adf, type: 2}
    - target: {fileID: 114084098158734594, guid: e4a44daee2cdaf941b4fcca5737bde8c, type: 3}
      propertyPath: m_hasFontAssetChanged
      value: 1
      objectReference: {fileID: 0}
    - target: {fileID: 114084098158734594, guid: e4a44daee2cdaf941b4fcca5737bde8c, type: 3}
      propertyPath: m_havePropertiesChanged
      value: 1
      objectReference: {fileID: 0}
    - target: {fileID: 114106215221058936, guid: e4a44daee2cdaf941b4fcca5737bde8c, type: 3}
      propertyPath: m_fontAsset
      value: 
      objectReference: {fileID: 11400000, guid: 2032339f567bde146b32a51cb1425adf, type: 2}
    - target: {fileID: 114106215221058936, guid: e4a44daee2cdaf941b4fcca5737bde8c, type: 3}
      propertyPath: m_hasFontAssetChanged
      value: 1
      objectReference: {fileID: 0}
    - target: {fileID: 114106215221058936, guid: e4a44daee2cdaf941b4fcca5737bde8c, type: 3}
      propertyPath: m_havePropertiesChanged
      value: 1
      objectReference: {fileID: 0}
    - target: {fileID: 114173626181387144, guid: e4a44daee2cdaf941b4fcca5737bde8c, type: 3}
      propertyPath: m_fontAsset
      value: 
      objectReference: {fileID: 11400000, guid: 2032339f567bde146b32a51cb1425adf, type: 2}
    - target: {fileID: 114173626181387144, guid: e4a44daee2cdaf941b4fcca5737bde8c, type: 3}
      propertyPath: m_hasFontAssetChanged
      value: 1
      objectReference: {fileID: 0}
    - target: {fileID: 114173850769456230, guid: e4a44daee2cdaf941b4fcca5737bde8c, type: 3}
      propertyPath: mainMenu
      value: 
      objectReference: {fileID: 1143114596}
    - target: {fileID: 114173850769456230, guid: e4a44daee2cdaf941b4fcca5737bde8c, type: 3}
      propertyPath: firstMenu
      value: 
      objectReference: {fileID: 1293255260}
    - target: {fileID: 114173850769456230, guid: e4a44daee2cdaf941b4fcca5737bde8c, type: 3}
      propertyPath: themeController
      value: 
      objectReference: {fileID: 11400000, guid: e00c7d2bc58a2424b8dc09ecdafdb067, type: 2}
    - target: {fileID: 114188093476489050, guid: e4a44daee2cdaf941b4fcca5737bde8c, type: 3}
      propertyPath: m_fontAsset
      value: 
      objectReference: {fileID: 11400000, guid: 2032339f567bde146b32a51cb1425adf, type: 2}
    - target: {fileID: 114188093476489050, guid: e4a44daee2cdaf941b4fcca5737bde8c, type: 3}
      propertyPath: m_sharedMaterial
      value: 
      objectReference: {fileID: 21694689038030200, guid: 2032339f567bde146b32a51cb1425adf, type: 2}
    - target: {fileID: 114188093476489050, guid: e4a44daee2cdaf941b4fcca5737bde8c, type: 3}
      propertyPath: m_havePropertiesChanged
      value: 1
      objectReference: {fileID: 0}
    - target: {fileID: 114188093476489050, guid: e4a44daee2cdaf941b4fcca5737bde8c, type: 3}
      propertyPath: m_isInputParsingRequired
      value: 0
      objectReference: {fileID: 0}
    - target: {fileID: 114189001278822864, guid: e4a44daee2cdaf941b4fcca5737bde8c, type: 3}
      propertyPath: m_fontAsset
      value: 
      objectReference: {fileID: 11400000, guid: 2032339f567bde146b32a51cb1425adf, type: 2}
    - target: {fileID: 114189001278822864, guid: e4a44daee2cdaf941b4fcca5737bde8c, type: 3}
      propertyPath: m_sharedMaterial
      value: 
      objectReference: {fileID: 21694689038030200, guid: 2032339f567bde146b32a51cb1425adf, type: 2}
    - target: {fileID: 114189001278822864, guid: e4a44daee2cdaf941b4fcca5737bde8c, type: 3}
      propertyPath: m_havePropertiesChanged
      value: 1
      objectReference: {fileID: 0}
    - target: {fileID: 114189001278822864, guid: e4a44daee2cdaf941b4fcca5737bde8c, type: 3}
      propertyPath: m_isInputParsingRequired
      value: 1
      objectReference: {fileID: 0}
    - target: {fileID: 114194041699553664, guid: e4a44daee2cdaf941b4fcca5737bde8c, type: 3}
      propertyPath: m_havePropertiesChanged
      value: 1
      objectReference: {fileID: 0}
    - target: {fileID: 114194041699553664, guid: e4a44daee2cdaf941b4fcca5737bde8c, type: 3}
      propertyPath: m_isInputParsingRequired
      value: 1
      objectReference: {fileID: 0}
    - target: {fileID: 114202919987759126, guid: e4a44daee2cdaf941b4fcca5737bde8c, type: 3}
      propertyPath: m_havePropertiesChanged
      value: 1
      objectReference: {fileID: 0}
    - target: {fileID: 114202919987759126, guid: e4a44daee2cdaf941b4fcca5737bde8c, type: 3}
      propertyPath: m_isInputParsingRequired
      value: 1
      objectReference: {fileID: 0}
    - target: {fileID: 114204456075970974, guid: e4a44daee2cdaf941b4fcca5737bde8c, type: 3}
      propertyPath: m_fontAsset
      value: 
      objectReference: {fileID: 11400000, guid: 2032339f567bde146b32a51cb1425adf, type: 2}
    - target: {fileID: 114204456075970974, guid: e4a44daee2cdaf941b4fcca5737bde8c, type: 3}
      propertyPath: m_hasFontAssetChanged
      value: 1
      objectReference: {fileID: 0}
    - target: {fileID: 114204456075970974, guid: e4a44daee2cdaf941b4fcca5737bde8c, type: 3}
      propertyPath: m_havePropertiesChanged
      value: 1
      objectReference: {fileID: 0}
    - target: {fileID: 114221197012881884, guid: e4a44daee2cdaf941b4fcca5737bde8c, type: 3}
      propertyPath: m_fontAsset
      value: 
      objectReference: {fileID: 11400000, guid: 2032339f567bde146b32a51cb1425adf, type: 2}
    - target: {fileID: 114221197012881884, guid: e4a44daee2cdaf941b4fcca5737bde8c, type: 3}
      propertyPath: m_hasFontAssetChanged
      value: 1
      objectReference: {fileID: 0}
    - target: {fileID: 114221197012881884, guid: e4a44daee2cdaf941b4fcca5737bde8c, type: 3}
      propertyPath: m_havePropertiesChanged
      value: 1
      objectReference: {fileID: 0}
    - target: {fileID: 114223501702227446, guid: e4a44daee2cdaf941b4fcca5737bde8c, type: 3}
      propertyPath: m_fontAsset
      value: 
      objectReference: {fileID: 11400000, guid: 2032339f567bde146b32a51cb1425adf, type: 2}
    - target: {fileID: 114223501702227446, guid: e4a44daee2cdaf941b4fcca5737bde8c, type: 3}
      propertyPath: m_hasFontAssetChanged
      value: 1
      objectReference: {fileID: 0}
    - target: {fileID: 114223501702227446, guid: e4a44daee2cdaf941b4fcca5737bde8c, type: 3}
      propertyPath: m_havePropertiesChanged
      value: 1
      objectReference: {fileID: 0}
    - target: {fileID: 114232984728738330, guid: e4a44daee2cdaf941b4fcca5737bde8c, type: 3}
      propertyPath: m_fontAsset
      value: 
      objectReference: {fileID: 11400000, guid: 2032339f567bde146b32a51cb1425adf, type: 2}
    - target: {fileID: 114232984728738330, guid: e4a44daee2cdaf941b4fcca5737bde8c, type: 3}
      propertyPath: m_sharedMaterial
      value: 
      objectReference: {fileID: 21694689038030200, guid: 2032339f567bde146b32a51cb1425adf, type: 2}
    - target: {fileID: 114232984728738330, guid: e4a44daee2cdaf941b4fcca5737bde8c, type: 3}
      propertyPath: m_havePropertiesChanged
      value: 1
      objectReference: {fileID: 0}
    - target: {fileID: 114232984728738330, guid: e4a44daee2cdaf941b4fcca5737bde8c, type: 3}
      propertyPath: m_isInputParsingRequired
      value: 0
      objectReference: {fileID: 0}
    - target: {fileID: 114249806193061598, guid: e4a44daee2cdaf941b4fcca5737bde8c, type: 3}
      propertyPath: m_fontAsset
      value: 
      objectReference: {fileID: 11400000, guid: 2032339f567bde146b32a51cb1425adf, type: 2}
    - target: {fileID: 114249806193061598, guid: e4a44daee2cdaf941b4fcca5737bde8c, type: 3}
      propertyPath: m_hasFontAssetChanged
      value: 1
      objectReference: {fileID: 0}
    - target: {fileID: 114249806193061598, guid: e4a44daee2cdaf941b4fcca5737bde8c, type: 3}
      propertyPath: m_havePropertiesChanged
      value: 1
      objectReference: {fileID: 0}
    - target: {fileID: 114254405011364664, guid: e4a44daee2cdaf941b4fcca5737bde8c, type: 3}
      propertyPath: m_fontAsset
      value: 
      objectReference: {fileID: 11400000, guid: 2032339f567bde146b32a51cb1425adf, type: 2}
    - target: {fileID: 114254405011364664, guid: e4a44daee2cdaf941b4fcca5737bde8c, type: 3}
      propertyPath: m_hasFontAssetChanged
      value: 1
      objectReference: {fileID: 0}
    - target: {fileID: 114254405011364664, guid: e4a44daee2cdaf941b4fcca5737bde8c, type: 3}
      propertyPath: m_havePropertiesChanged
      value: 1
      objectReference: {fileID: 0}
    - target: {fileID: 114260533201585272, guid: e4a44daee2cdaf941b4fcca5737bde8c, type: 3}
      propertyPath: m_fontAsset
      value: 
      objectReference: {fileID: 11400000, guid: 2032339f567bde146b32a51cb1425adf, type: 2}
    - target: {fileID: 114260533201585272, guid: e4a44daee2cdaf941b4fcca5737bde8c, type: 3}
      propertyPath: m_hasFontAssetChanged
      value: 1
      objectReference: {fileID: 0}
    - target: {fileID: 114266064842449522, guid: e4a44daee2cdaf941b4fcca5737bde8c, type: 3}
      propertyPath: m_fontAsset
      value: 
      objectReference: {fileID: 11400000, guid: 2032339f567bde146b32a51cb1425adf, type: 2}
    - target: {fileID: 114266064842449522, guid: e4a44daee2cdaf941b4fcca5737bde8c, type: 3}
      propertyPath: m_hasFontAssetChanged
      value: 1
      objectReference: {fileID: 0}
    - target: {fileID: 114266064842449522, guid: e4a44daee2cdaf941b4fcca5737bde8c, type: 3}
      propertyPath: m_havePropertiesChanged
      value: 1
      objectReference: {fileID: 0}
    - target: {fileID: 114281871169479974, guid: e4a44daee2cdaf941b4fcca5737bde8c, type: 3}
      propertyPath: m_fontAsset
      value: 
      objectReference: {fileID: 11400000, guid: 2032339f567bde146b32a51cb1425adf, type: 2}
    - target: {fileID: 114281871169479974, guid: e4a44daee2cdaf941b4fcca5737bde8c, type: 3}
      propertyPath: m_hasFontAssetChanged
      value: 1
      objectReference: {fileID: 0}
    - target: {fileID: 114282375274687532, guid: e4a44daee2cdaf941b4fcca5737bde8c, type: 3}
      propertyPath: m_fontAsset
      value: 
      objectReference: {fileID: 11400000, guid: 2032339f567bde146b32a51cb1425adf, type: 2}
    - target: {fileID: 114282375274687532, guid: e4a44daee2cdaf941b4fcca5737bde8c, type: 3}
      propertyPath: m_sharedMaterial
      value: 
      objectReference: {fileID: 21694689038030200, guid: 2032339f567bde146b32a51cb1425adf, type: 2}
    - target: {fileID: 114282375274687532, guid: e4a44daee2cdaf941b4fcca5737bde8c, type: 3}
      propertyPath: m_havePropertiesChanged
      value: 1
      objectReference: {fileID: 0}
    - target: {fileID: 114282375274687532, guid: e4a44daee2cdaf941b4fcca5737bde8c, type: 3}
      propertyPath: m_isInputParsingRequired
      value: 1
      objectReference: {fileID: 0}
    - target: {fileID: 114288642902844900, guid: e4a44daee2cdaf941b4fcca5737bde8c, type: 3}
      propertyPath: m_fontAsset
      value: 
      objectReference: {fileID: 11400000, guid: 2032339f567bde146b32a51cb1425adf, type: 2}
    - target: {fileID: 114288642902844900, guid: e4a44daee2cdaf941b4fcca5737bde8c, type: 3}
      propertyPath: m_hasFontAssetChanged
      value: 1
      objectReference: {fileID: 0}
    - target: {fileID: 114327409220750330, guid: e4a44daee2cdaf941b4fcca5737bde8c, type: 3}
      propertyPath: m_fontAsset
      value: 
      objectReference: {fileID: 11400000, guid: 2032339f567bde146b32a51cb1425adf, type: 2}
    - target: {fileID: 114327409220750330, guid: e4a44daee2cdaf941b4fcca5737bde8c, type: 3}
      propertyPath: m_sharedMaterial
      value: 
      objectReference: {fileID: 21694689038030200, guid: 2032339f567bde146b32a51cb1425adf, type: 2}
    - target: {fileID: 114327409220750330, guid: e4a44daee2cdaf941b4fcca5737bde8c, type: 3}
      propertyPath: m_havePropertiesChanged
      value: 1
      objectReference: {fileID: 0}
    - target: {fileID: 114327409220750330, guid: e4a44daee2cdaf941b4fcca5737bde8c, type: 3}
      propertyPath: m_isInputParsingRequired
      value: 1
      objectReference: {fileID: 0}
    - target: {fileID: 114353562935196694, guid: e4a44daee2cdaf941b4fcca5737bde8c, type: 3}
      propertyPath: m_havePropertiesChanged
      value: 1
      objectReference: {fileID: 0}
    - target: {fileID: 114353562935196694, guid: e4a44daee2cdaf941b4fcca5737bde8c, type: 3}
      propertyPath: m_isInputParsingRequired
      value: 1
      objectReference: {fileID: 0}
    - target: {fileID: 114354618416314834, guid: e4a44daee2cdaf941b4fcca5737bde8c, type: 3}
      propertyPath: m_fontAsset
      value: 
      objectReference: {fileID: 11400000, guid: 2032339f567bde146b32a51cb1425adf, type: 2}
    - target: {fileID: 114354618416314834, guid: e4a44daee2cdaf941b4fcca5737bde8c, type: 3}
      propertyPath: m_sharedMaterial
      value: 
      objectReference: {fileID: 21694689038030200, guid: 2032339f567bde146b32a51cb1425adf, type: 2}
    - target: {fileID: 114354618416314834, guid: e4a44daee2cdaf941b4fcca5737bde8c, type: 3}
      propertyPath: m_havePropertiesChanged
      value: 1
      objectReference: {fileID: 0}
    - target: {fileID: 114354618416314834, guid: e4a44daee2cdaf941b4fcca5737bde8c, type: 3}
      propertyPath: m_isInputParsingRequired
      value: 1
      objectReference: {fileID: 0}
    - target: {fileID: 114362966621919376, guid: e4a44daee2cdaf941b4fcca5737bde8c, type: 3}
      propertyPath: m_fontAsset
      value: 
      objectReference: {fileID: 11400000, guid: 2032339f567bde146b32a51cb1425adf, type: 2}
    - target: {fileID: 114362966621919376, guid: e4a44daee2cdaf941b4fcca5737bde8c, type: 3}
      propertyPath: m_sharedMaterial
      value: 
      objectReference: {fileID: 21694689038030200, guid: 2032339f567bde146b32a51cb1425adf, type: 2}
    - target: {fileID: 114362966621919376, guid: e4a44daee2cdaf941b4fcca5737bde8c, type: 3}
      propertyPath: m_havePropertiesChanged
      value: 1
      objectReference: {fileID: 0}
    - target: {fileID: 114362966621919376, guid: e4a44daee2cdaf941b4fcca5737bde8c, type: 3}
      propertyPath: m_isInputParsingRequired
      value: 1
      objectReference: {fileID: 0}
    - target: {fileID: 114383109093514346, guid: e4a44daee2cdaf941b4fcca5737bde8c, type: 3}
      propertyPath: m_havePropertiesChanged
      value: 1
      objectReference: {fileID: 0}
    - target: {fileID: 114383109093514346, guid: e4a44daee2cdaf941b4fcca5737bde8c, type: 3}
      propertyPath: m_isInputParsingRequired
      value: 1
      objectReference: {fileID: 0}
    - target: {fileID: 114421910685014054, guid: e4a44daee2cdaf941b4fcca5737bde8c, type: 3}
      propertyPath: m_fontAsset
      value: 
      objectReference: {fileID: 11400000, guid: 2032339f567bde146b32a51cb1425adf, type: 2}
    - target: {fileID: 114421910685014054, guid: e4a44daee2cdaf941b4fcca5737bde8c, type: 3}
      propertyPath: m_sharedMaterial
      value: 
      objectReference: {fileID: 21694689038030200, guid: 2032339f567bde146b32a51cb1425adf, type: 2}
    - target: {fileID: 114421910685014054, guid: e4a44daee2cdaf941b4fcca5737bde8c, type: 3}
      propertyPath: m_havePropertiesChanged
      value: 1
      objectReference: {fileID: 0}
    - target: {fileID: 114421910685014054, guid: e4a44daee2cdaf941b4fcca5737bde8c, type: 3}
      propertyPath: m_isInputParsingRequired
      value: 1
      objectReference: {fileID: 0}
    - target: {fileID: 114452082196950968, guid: e4a44daee2cdaf941b4fcca5737bde8c, type: 3}
      propertyPath: m_fontAsset
      value: 
      objectReference: {fileID: 11400000, guid: 2032339f567bde146b32a51cb1425adf, type: 2}
    - target: {fileID: 114452082196950968, guid: e4a44daee2cdaf941b4fcca5737bde8c, type: 3}
      propertyPath: m_hasFontAssetChanged
      value: 1
      objectReference: {fileID: 0}
    - target: {fileID: 114452082196950968, guid: e4a44daee2cdaf941b4fcca5737bde8c, type: 3}
      propertyPath: m_havePropertiesChanged
      value: 1
      objectReference: {fileID: 0}
    - target: {fileID: 114481027203853606, guid: e4a44daee2cdaf941b4fcca5737bde8c, type: 3}
      propertyPath: m_fontAsset
      value: 
      objectReference: {fileID: 11400000, guid: 2032339f567bde146b32a51cb1425adf, type: 2}
    - target: {fileID: 114481027203853606, guid: e4a44daee2cdaf941b4fcca5737bde8c, type: 3}
      propertyPath: m_sharedMaterial
      value: 
      objectReference: {fileID: 21694689038030200, guid: 2032339f567bde146b32a51cb1425adf, type: 2}
    - target: {fileID: 114481027203853606, guid: e4a44daee2cdaf941b4fcca5737bde8c, type: 3}
      propertyPath: m_havePropertiesChanged
      value: 1
      objectReference: {fileID: 0}
    - target: {fileID: 114481027203853606, guid: e4a44daee2cdaf941b4fcca5737bde8c, type: 3}
      propertyPath: m_isInputParsingRequired
      value: 1
      objectReference: {fileID: 0}
    - target: {fileID: 114507091989440584, guid: e4a44daee2cdaf941b4fcca5737bde8c, type: 3}
      propertyPath: m_fontAsset
      value: 
      objectReference: {fileID: 11400000, guid: 2032339f567bde146b32a51cb1425adf, type: 2}
    - target: {fileID: 114507091989440584, guid: e4a44daee2cdaf941b4fcca5737bde8c, type: 3}
      propertyPath: m_hasFontAssetChanged
      value: 1
      objectReference: {fileID: 0}
    - target: {fileID: 114507091989440584, guid: e4a44daee2cdaf941b4fcca5737bde8c, type: 3}
      propertyPath: m_havePropertiesChanged
      value: 1
      objectReference: {fileID: 0}
    - target: {fileID: 114518622580019508, guid: e4a44daee2cdaf941b4fcca5737bde8c, type: 3}
      propertyPath: m_fontAsset
      value: 
      objectReference: {fileID: 11400000, guid: 2032339f567bde146b32a51cb1425adf, type: 2}
    - target: {fileID: 114518622580019508, guid: e4a44daee2cdaf941b4fcca5737bde8c, type: 3}
      propertyPath: m_hasFontAssetChanged
      value: 1
      objectReference: {fileID: 0}
    - target: {fileID: 114518622580019508, guid: e4a44daee2cdaf941b4fcca5737bde8c, type: 3}
      propertyPath: m_havePropertiesChanged
      value: 1
      objectReference: {fileID: 0}
    - target: {fileID: 114535186982198838, guid: e4a44daee2cdaf941b4fcca5737bde8c, type: 3}
      propertyPath: m_fontAsset
      value: 
      objectReference: {fileID: 11400000, guid: 2032339f567bde146b32a51cb1425adf, type: 2}
    - target: {fileID: 114535186982198838, guid: e4a44daee2cdaf941b4fcca5737bde8c, type: 3}
      propertyPath: m_hasFontAssetChanged
      value: 1
      objectReference: {fileID: 0}
    - target: {fileID: 114604784057591168, guid: e4a44daee2cdaf941b4fcca5737bde8c, type: 3}
      propertyPath: m_havePropertiesChanged
      value: 1
      objectReference: {fileID: 0}
    - target: {fileID: 114604784057591168, guid: e4a44daee2cdaf941b4fcca5737bde8c, type: 3}
      propertyPath: m_isInputParsingRequired
      value: 1
      objectReference: {fileID: 0}
    - target: {fileID: 114638687809616596, guid: e4a44daee2cdaf941b4fcca5737bde8c, type: 3}
      propertyPath: m_fontAsset
      value: 
      objectReference: {fileID: 11400000, guid: 2032339f567bde146b32a51cb1425adf, type: 2}
    - target: {fileID: 114638687809616596, guid: e4a44daee2cdaf941b4fcca5737bde8c, type: 3}
      propertyPath: m_hasFontAssetChanged
      value: 1
      objectReference: {fileID: 0}
    - target: {fileID: 114645784393773978, guid: e4a44daee2cdaf941b4fcca5737bde8c, type: 3}
      propertyPath: m_havePropertiesChanged
      value: 1
      objectReference: {fileID: 0}
    - target: {fileID: 114645784393773978, guid: e4a44daee2cdaf941b4fcca5737bde8c, type: 3}
      propertyPath: m_isInputParsingRequired
      value: 1
      objectReference: {fileID: 0}
    - target: {fileID: 114661917482025790, guid: e4a44daee2cdaf941b4fcca5737bde8c, type: 3}
      propertyPath: m_fontAsset
      value: 
      objectReference: {fileID: 11400000, guid: 2032339f567bde146b32a51cb1425adf, type: 2}
    - target: {fileID: 114661917482025790, guid: e4a44daee2cdaf941b4fcca5737bde8c, type: 3}
      propertyPath: m_hasFontAssetChanged
      value: 1
      objectReference: {fileID: 0}
    - target: {fileID: 114661917482025790, guid: e4a44daee2cdaf941b4fcca5737bde8c, type: 3}
      propertyPath: m_havePropertiesChanged
      value: 1
      objectReference: {fileID: 0}
    - target: {fileID: 114693034417118436, guid: e4a44daee2cdaf941b4fcca5737bde8c, type: 3}
      propertyPath: m_fontAsset
      value: 
      objectReference: {fileID: 11400000, guid: 2032339f567bde146b32a51cb1425adf, type: 2}
    - target: {fileID: 114693034417118436, guid: e4a44daee2cdaf941b4fcca5737bde8c, type: 3}
      propertyPath: m_hasFontAssetChanged
      value: 1
      objectReference: {fileID: 0}
    - target: {fileID: 114723503239694266, guid: e4a44daee2cdaf941b4fcca5737bde8c, type: 3}
      propertyPath: m_fontAsset
      value: 
      objectReference: {fileID: 11400000, guid: 2032339f567bde146b32a51cb1425adf, type: 2}
    - target: {fileID: 114723503239694266, guid: e4a44daee2cdaf941b4fcca5737bde8c, type: 3}
      propertyPath: m_hasFontAssetChanged
      value: 1
      objectReference: {fileID: 0}
    - target: {fileID: 114723503239694266, guid: e4a44daee2cdaf941b4fcca5737bde8c, type: 3}
      propertyPath: m_havePropertiesChanged
      value: 1
      objectReference: {fileID: 0}
    - target: {fileID: 114729885347699224, guid: e4a44daee2cdaf941b4fcca5737bde8c, type: 3}
      propertyPath: m_fontAsset
      value: 
      objectReference: {fileID: 11400000, guid: 2032339f567bde146b32a51cb1425adf, type: 2}
    - target: {fileID: 114729885347699224, guid: e4a44daee2cdaf941b4fcca5737bde8c, type: 3}
      propertyPath: m_sharedMaterial
      value: 
      objectReference: {fileID: 21694689038030200, guid: 2032339f567bde146b32a51cb1425adf, type: 2}
    - target: {fileID: 114729885347699224, guid: e4a44daee2cdaf941b4fcca5737bde8c, type: 3}
      propertyPath: m_havePropertiesChanged
      value: 1
      objectReference: {fileID: 0}
    - target: {fileID: 114729885347699224, guid: e4a44daee2cdaf941b4fcca5737bde8c, type: 3}
      propertyPath: m_isInputParsingRequired
      value: 1
      objectReference: {fileID: 0}
    - target: {fileID: 114741829183953468, guid: e4a44daee2cdaf941b4fcca5737bde8c, type: 3}
      propertyPath: m_fontAsset
      value: 
      objectReference: {fileID: 11400000, guid: 2032339f567bde146b32a51cb1425adf, type: 2}
    - target: {fileID: 114741829183953468, guid: e4a44daee2cdaf941b4fcca5737bde8c, type: 3}
      propertyPath: m_sharedMaterial
      value: 
      objectReference: {fileID: 21694689038030200, guid: 2032339f567bde146b32a51cb1425adf, type: 2}
    - target: {fileID: 114741829183953468, guid: e4a44daee2cdaf941b4fcca5737bde8c, type: 3}
      propertyPath: m_havePropertiesChanged
      value: 1
      objectReference: {fileID: 0}
    - target: {fileID: 114741829183953468, guid: e4a44daee2cdaf941b4fcca5737bde8c, type: 3}
      propertyPath: m_isInputParsingRequired
      value: 1
      objectReference: {fileID: 0}
    - target: {fileID: 114772933369415556, guid: e4a44daee2cdaf941b4fcca5737bde8c, type: 3}
      propertyPath: m_fontAsset
      value: 
      objectReference: {fileID: 11400000, guid: 2032339f567bde146b32a51cb1425adf, type: 2}
    - target: {fileID: 114772933369415556, guid: e4a44daee2cdaf941b4fcca5737bde8c, type: 3}
      propertyPath: m_hasFontAssetChanged
      value: 1
      objectReference: {fileID: 0}
    - target: {fileID: 114790310958544114, guid: e4a44daee2cdaf941b4fcca5737bde8c, type: 3}
      propertyPath: m_fontAsset
      value: 
      objectReference: {fileID: 11400000, guid: 2032339f567bde146b32a51cb1425adf, type: 2}
    - target: {fileID: 114790310958544114, guid: e4a44daee2cdaf941b4fcca5737bde8c, type: 3}
      propertyPath: m_hasFontAssetChanged
      value: 1
      objectReference: {fileID: 0}
    - target: {fileID: 114790310958544114, guid: e4a44daee2cdaf941b4fcca5737bde8c, type: 3}
      propertyPath: m_havePropertiesChanged
      value: 1
      objectReference: {fileID: 0}
    - target: {fileID: 114806970492473940, guid: e4a44daee2cdaf941b4fcca5737bde8c, type: 3}
      propertyPath: m_fontAsset
      value: 
      objectReference: {fileID: 11400000, guid: 2032339f567bde146b32a51cb1425adf, type: 2}
    - target: {fileID: 114806970492473940, guid: e4a44daee2cdaf941b4fcca5737bde8c, type: 3}
      propertyPath: m_hasFontAssetChanged
      value: 1
      objectReference: {fileID: 0}
    - target: {fileID: 114806970492473940, guid: e4a44daee2cdaf941b4fcca5737bde8c, type: 3}
      propertyPath: m_havePropertiesChanged
      value: 1
      objectReference: {fileID: 0}
    - target: {fileID: 114810672344152274, guid: e4a44daee2cdaf941b4fcca5737bde8c, type: 3}
      propertyPath: m_fontAsset
      value: 
      objectReference: {fileID: 11400000, guid: 2032339f567bde146b32a51cb1425adf, type: 2}
    - target: {fileID: 114810672344152274, guid: e4a44daee2cdaf941b4fcca5737bde8c, type: 3}
      propertyPath: m_hasFontAssetChanged
      value: 1
      objectReference: {fileID: 0}
    - target: {fileID: 114821354692328278, guid: e4a44daee2cdaf941b4fcca5737bde8c, type: 3}
      propertyPath: m_OnClick.m_PersistentCalls.m_Calls.Array.size
      value: 3
      objectReference: {fileID: 0}
    - target: {fileID: 114821354692328278, guid: e4a44daee2cdaf941b4fcca5737bde8c, type: 3}
      propertyPath: m_OnClick.m_PersistentCalls.m_Calls.Array.data[2].m_Target
      value: 
      objectReference: {fileID: 1279076790}
    - target: {fileID: 114821354692328278, guid: e4a44daee2cdaf941b4fcca5737bde8c, type: 3}
      propertyPath: m_OnClick.m_PersistentCalls.m_Calls.Array.data[1].m_MethodName
      value: PlaySwoosh
      objectReference: {fileID: 0}
    - target: {fileID: 114821354692328278, guid: e4a44daee2cdaf941b4fcca5737bde8c, type: 3}
      propertyPath: m_OnClick.m_PersistentCalls.m_Calls.Array.data[2].m_MethodName
      value: ReturnMenu
      objectReference: {fileID: 0}
    - target: {fileID: 114821354692328278, guid: e4a44daee2cdaf941b4fcca5737bde8c, type: 3}
      propertyPath: m_OnClick.m_PersistentCalls.m_Calls.Array.data[2].m_Arguments.m_ObjectArgumentAssemblyTypeName
      value: UnityEngine.Object, UnityEngine
      objectReference: {fileID: 0}
    - target: {fileID: 114849150549129058, guid: e4a44daee2cdaf941b4fcca5737bde8c, type: 3}
      propertyPath: m_fontAsset
      value: 
      objectReference: {fileID: 11400000, guid: 2032339f567bde146b32a51cb1425adf, type: 2}
    - target: {fileID: 114849150549129058, guid: e4a44daee2cdaf941b4fcca5737bde8c, type: 3}
      propertyPath: m_hasFontAssetChanged
      value: 1
      objectReference: {fileID: 0}
    - target: {fileID: 114856394299405414, guid: e4a44daee2cdaf941b4fcca5737bde8c, type: 3}
      propertyPath: m_fontAsset
      value: 
      objectReference: {fileID: 11400000, guid: 2032339f567bde146b32a51cb1425adf, type: 2}
    - target: {fileID: 114856394299405414, guid: e4a44daee2cdaf941b4fcca5737bde8c, type: 3}
      propertyPath: m_hasFontAssetChanged
      value: 1
      objectReference: {fileID: 0}
    - target: {fileID: 114861803345524386, guid: e4a44daee2cdaf941b4fcca5737bde8c, type: 3}
      propertyPath: m_fontAsset
      value: 
      objectReference: {fileID: 11400000, guid: 2032339f567bde146b32a51cb1425adf, type: 2}
    - target: {fileID: 114861803345524386, guid: e4a44daee2cdaf941b4fcca5737bde8c, type: 3}
      propertyPath: m_hasFontAssetChanged
      value: 1
      objectReference: {fileID: 0}
    - target: {fileID: 114861803345524386, guid: e4a44daee2cdaf941b4fcca5737bde8c, type: 3}
      propertyPath: m_isInputParsingRequired
      value: 1
      objectReference: {fileID: 0}
    - target: {fileID: 114917922099594732, guid: e4a44daee2cdaf941b4fcca5737bde8c, type: 3}
      propertyPath: m_fontAsset
      value: 
      objectReference: {fileID: 11400000, guid: 2032339f567bde146b32a51cb1425adf, type: 2}
    - target: {fileID: 114917922099594732, guid: e4a44daee2cdaf941b4fcca5737bde8c, type: 3}
      propertyPath: m_sharedMaterial
      value: 
      objectReference: {fileID: 21694689038030200, guid: 2032339f567bde146b32a51cb1425adf, type: 2}
    - target: {fileID: 114917922099594732, guid: e4a44daee2cdaf941b4fcca5737bde8c, type: 3}
      propertyPath: m_havePropertiesChanged
      value: 1
      objectReference: {fileID: 0}
    - target: {fileID: 114917922099594732, guid: e4a44daee2cdaf941b4fcca5737bde8c, type: 3}
      propertyPath: m_isInputParsingRequired
      value: 0
      objectReference: {fileID: 0}
    - target: {fileID: 114929933993574688, guid: e4a44daee2cdaf941b4fcca5737bde8c, type: 3}
      propertyPath: m_fontAsset
      value: 
      objectReference: {fileID: 11400000, guid: 2032339f567bde146b32a51cb1425adf, type: 2}
    - target: {fileID: 114929933993574688, guid: e4a44daee2cdaf941b4fcca5737bde8c, type: 3}
      propertyPath: m_hasFontAssetChanged
      value: 1
      objectReference: {fileID: 0}
    - target: {fileID: 114929933993574688, guid: e4a44daee2cdaf941b4fcca5737bde8c, type: 3}
      propertyPath: m_havePropertiesChanged
      value: 1
      objectReference: {fileID: 0}
    - target: {fileID: 114943096960630200, guid: e4a44daee2cdaf941b4fcca5737bde8c, type: 3}
      propertyPath: m_havePropertiesChanged
      value: 1
      objectReference: {fileID: 0}
    - target: {fileID: 114943096960630200, guid: e4a44daee2cdaf941b4fcca5737bde8c, type: 3}
      propertyPath: m_isInputParsingRequired
      value: 1
      objectReference: {fileID: 0}
    - target: {fileID: 224392266780775354, guid: e4a44daee2cdaf941b4fcca5737bde8c, type: 3}
      propertyPath: m_AnchoredPosition.x
      value: -0.60009766
      objectReference: {fileID: 0}
    - target: {fileID: 224392266780775354, guid: e4a44daee2cdaf941b4fcca5737bde8c, type: 3}
      propertyPath: m_AnchoredPosition.y
      value: -2.5265503
      objectReference: {fileID: 0}
    - target: {fileID: 224592293152829476, guid: e4a44daee2cdaf941b4fcca5737bde8c, type: 3}
      propertyPath: m_AnchoredPosition.x
      value: -0.5999756
      objectReference: {fileID: 0}
    - target: {fileID: 224592293152829476, guid: e4a44daee2cdaf941b4fcca5737bde8c, type: 3}
      propertyPath: m_AnchoredPosition.y
      value: -2.5269775
      objectReference: {fileID: 0}
    - target: {fileID: 224607085995498226, guid: e4a44daee2cdaf941b4fcca5737bde8c, type: 3}
      propertyPath: m_AnchoredPosition.x
      value: -0.60009766
      objectReference: {fileID: 0}
    - target: {fileID: 224607085995498226, guid: e4a44daee2cdaf941b4fcca5737bde8c, type: 3}
      propertyPath: m_AnchoredPosition.y
      value: -2.5265503
      objectReference: {fileID: 0}
    - target: {fileID: 224624411234508574, guid: e4a44daee2cdaf941b4fcca5737bde8c, type: 3}
      propertyPath: m_AnchorMax.x
      value: 0
      objectReference: {fileID: 0}
    - target: {fileID: 224624411234508574, guid: e4a44daee2cdaf941b4fcca5737bde8c, type: 3}
      propertyPath: m_AnchorMax.y
      value: 0
      objectReference: {fileID: 0}
    - target: {fileID: 224624411234508574, guid: e4a44daee2cdaf941b4fcca5737bde8c, type: 3}
      propertyPath: m_AnchorMin.x
      value: 0
      objectReference: {fileID: 0}
    - target: {fileID: 224786953264816360, guid: e4a44daee2cdaf941b4fcca5737bde8c, type: 3}
      propertyPath: m_AnchoredPosition.x
      value: -0.60009766
      objectReference: {fileID: 0}
    - target: {fileID: 224786953264816360, guid: e4a44daee2cdaf941b4fcca5737bde8c, type: 3}
      propertyPath: m_AnchoredPosition.y
      value: -2.5265503
      objectReference: {fileID: 0}
    - target: {fileID: 224840439261155376, guid: e4a44daee2cdaf941b4fcca5737bde8c, type: 3}
      propertyPath: m_AnchorMax.y
      value: 0
      objectReference: {fileID: 0}
    - target: {fileID: 224840439261155376, guid: e4a44daee2cdaf941b4fcca5737bde8c, type: 3}
      propertyPath: m_AnchorMin.y
      value: 0
      objectReference: {fileID: 0}
    - target: {fileID: 224840439261155376, guid: e4a44daee2cdaf941b4fcca5737bde8c, type: 3}
      propertyPath: m_SizeDelta.x
      value: 0
      objectReference: {fileID: 0}
    - target: {fileID: 224840439261155376, guid: e4a44daee2cdaf941b4fcca5737bde8c, type: 3}
      propertyPath: m_AnchoredPosition.x
      value: 0
      objectReference: {fileID: 0}
    - target: {fileID: 224840439261155376, guid: e4a44daee2cdaf941b4fcca5737bde8c, type: 3}
      propertyPath: m_AnchoredPosition.y
      value: 0
      objectReference: {fileID: 0}
    - target: {fileID: 224878150016006254, guid: e4a44daee2cdaf941b4fcca5737bde8c, type: 3}
      propertyPath: m_AnchorMax.y
      value: 0
      objectReference: {fileID: 0}
    - target: {fileID: 224878150016006254, guid: e4a44daee2cdaf941b4fcca5737bde8c, type: 3}
      propertyPath: m_AnchorMin.y
      value: 0
      objectReference: {fileID: 0}
    - target: {fileID: 224878150016006254, guid: e4a44daee2cdaf941b4fcca5737bde8c, type: 3}
      propertyPath: m_SizeDelta.x
      value: 0
      objectReference: {fileID: 0}
    - target: {fileID: 224878150016006254, guid: e4a44daee2cdaf941b4fcca5737bde8c, type: 3}
      propertyPath: m_AnchoredPosition.x
      value: 0
      objectReference: {fileID: 0}
    - target: {fileID: 224878150016006254, guid: e4a44daee2cdaf941b4fcca5737bde8c, type: 3}
      propertyPath: m_AnchoredPosition.y
      value: 0
      objectReference: {fileID: 0}
    - target: {fileID: 224913177841918636, guid: e4a44daee2cdaf941b4fcca5737bde8c, type: 3}
      propertyPath: m_AnchorMax.y
      value: 0
      objectReference: {fileID: 0}
    - target: {fileID: 224913177841918636, guid: e4a44daee2cdaf941b4fcca5737bde8c, type: 3}
      propertyPath: m_AnchorMin.y
      value: 0
      objectReference: {fileID: 0}
    - target: {fileID: 224913177841918636, guid: e4a44daee2cdaf941b4fcca5737bde8c, type: 3}
      propertyPath: m_SizeDelta.x
      value: 0
      objectReference: {fileID: 0}
    - target: {fileID: 224913177841918636, guid: e4a44daee2cdaf941b4fcca5737bde8c, type: 3}
      propertyPath: m_AnchoredPosition.x
      value: 0
      objectReference: {fileID: 0}
    - target: {fileID: 224913177841918636, guid: e4a44daee2cdaf941b4fcca5737bde8c, type: 3}
      propertyPath: m_AnchoredPosition.y
      value: 0
      objectReference: {fileID: 0}
    - target: {fileID: 224961688949872148, guid: e4a44daee2cdaf941b4fcca5737bde8c, type: 3}
      propertyPath: m_AnchorMax.x
      value: 0
      objectReference: {fileID: 0}
    - target: {fileID: 224961688949872148, guid: e4a44daee2cdaf941b4fcca5737bde8c, type: 3}
      propertyPath: m_AnchorMax.y
      value: 0
      objectReference: {fileID: 0}
    m_RemovedComponents: []
  m_SourcePrefab: {fileID: 100100000, guid: e4a44daee2cdaf941b4fcca5737bde8c, type: 3}
--- !u!1 &1293255260 stripped
GameObject:
  m_CorrespondingSourceObject: {fileID: 1717641948563120, guid: e4a44daee2cdaf941b4fcca5737bde8c, type: 3}
  m_PrefabInstance: {fileID: 1293255259}
  m_PrefabAsset: {fileID: 0}
