%YAML 1.1
%TAG !u! tag:unity3d.com,2011:
--- !u!1045 &1
EditorBuildSettings:
  m_ObjectHideFlags: 0
  serializedVersion: 2
  m_Scenes:
  - enabled: 1
    path: "Assets/Scenes/\u6700\u7EC8\u6548\u679C/Menu_Scene.unity"
    guid: d511f01854d99094da2bac2cf6c89f2c
  - enabled: 1
    path: Assets/Scenes/FinalLevel_Hzj.unity
    guid: 637b41ccef8348e4bbf008457bbf1bd3
  m_configObjects: {}
